[
    {
        "full_name": "Екатерина",
        "profile_picture": "https://skillfab.pro/upload/teachers/images/gygi3Ls0ejk.jpg"
    },
    {
        "full_name": "Дмитрий",
        "profile_picture": "https://skillfab.pro/upload/teachers/images/AF0DDFC4-11E4-4446-9ECA-AD7732632425.jpeg"
    },
    {
        "full_name": "Павел",
        "profile_picture": "https://skillfab.pro/upload/teachers/images/DSC_0150.jpg"
    },
    {
        "full_name": "Алексей",
        "profile_picture": "https://skillfab.pro/upload/teachers/images/DSC_1798.jpg"
    },
    {
        "full_name": "Станислава",
        "profile_picture": "https://skillfab.pro/upload/teachers/images/DSC_1866.jpg"
    },
    {
        "full_name": "Юлия",
        "profile_picture": "https://skillfab.pro/upload/teachers/images/DSC_1876.jpg"
    },
    {
        "full_name": "Игнат",
        "profile_picture": "https://skillfab.pro/upload/teachers/images/photo_2020-11-26_00.16.20.jpeg"
    },
    {
        "full_name": "Валерчик",
        "profile_picture": "https://skillfab.pro/upload/teachers/images/Кож2.png"
    }
]